C000030000000004500000000000000sss00

D150620160191018354210002554101050161001161109242000000000200000Liquidacion de Prestamo de TuPadrino.Net Fecha: 2016-06-15  V113135049MIGUEL EDUARDO BRIGATI GUERRA                                                   m_brigati@hotmail.com                                                                               0011313504
D150620160191018354210002554101050026561026358132000000000100000Liquidacion de Prestamo de TuPadrino.Net Fecha: 2016-06-15  V123848059VERONICA  ARANTEGUI CABRERA                                                     vac05@hotmail.com                                                                                   0012384805
D150620160191018354210002554101050031101031609881000000000150000Liquidacion de Prestamo de TuPadrino.Net Fecha: 2016-06-15  V117368419MARIO MiRANDA                                                                   mirandamen@gmail.com                                                                                0011736841
