C000010000000060000000000000000sss00

D270320170191014287210004434601020148910000041001000000006000000Liquidacion de TuPadrino.Net                                V018994159JEAN ALEXANDER MEJIAS ALDANA                                                    jeanmejias87@hotmail.com                                                                            0018994159
