C000020000000003000000000000000sss00

D70720160191018354210002554101050026511026373824000000000100000Liquidacion de Prestamo de TuPadrino.Net Fecha: 2016-07-01  V329221799ALVARO DEL COROMOTO RODRIGUEZ LIRA                                              ralvaro3@gmail.com                                                                                  0003292217
D70720160191018354210002554101050188181188070789000000000200000Liquidacion de Prestamo de TuPadrino.Net Fecha: 2016-07-01  V144036539MANUEL CLEMENTE SCOTTO MEDINA                                                   manuel.scotto@gmail.com                                                                             0014403653
