01340252312523007834 HECTOR EDUARDO MORILLO LOPEZ                       11228820   01910183542100025541 1000            Hectormorillo@tupadrino.net                                                                          1  I
01340077640772312130 HAROLD ESTEBAN VILLALOBOS VALBUENA                 17636325   01910183542100025541 1000            HaroldVillalobos@tupadrino.net                                                                       1  I
01050031101031609881 MARIO MIRANDA                                      11736841   01910183542100025541 1000            MarioMiranda@tupadrino.net                                                                           1  I
01050161001161109242 MIGUEL EDUARDO BRIGATI GUERRA                      11313504   01910183542100025541 1000            MiguelBrigati@tupadrino.net                                                                          1  I
01340252312523007842 HECTOR MORILLO                                     798364     01910183542100025541 1000            HectorMorillop@tupadrino.net                                                                         1  I
