01340252312523007834HECTOR EDUARDO MORILLO LOPEZ                      V004751844000004751844000000000001000Hectormorillo@tupadrino.net                                                                         02M
01340077640772312130HAROLD ESTEBAN VILLALOBOS VALBUENA                V005813246000005813246000000000001000HaroldVillalobos@tupadrino.net                                                                      02M
01050031101031609881MARIO MIRANDA                                     V011736841000011736841000000000001000MarioMiranda@tupadrino.net                                                                          02M
01050161001161109242MIGUEL EDUARDO BRIGATI GUERRA                     V017636326000017636326000000000001000MiguelBrigati@tupadrino.net                                                                         02M
01340252312523007842HECTOR MORILLO                                    V017636325000017636325000000000001000HectorMorillop@tupadrino.net                                                                        02M
