01340252312523007834HECTOR EDUARDO MORILLO LOPEZ                      V0751844  0000V4751844000000000001000Hectormorillo@tupadrino.net                                                                         02M
01340077640772312130HAROLD ESTEBAN VILLALOBOS VALBUENA                V07636325 000V17636325000000000001000HaroldVillalobos@tupadrino.net                                                                      02M
01050031101031609881MARIO MIRANDA                                     V01736841 000V11736841000000000001000MarioMiranda@tupadrino.net                                                                          02M
01050161001161109242MIGUEL EDUARDO BRIGATI GUERRA                     V01313504 000V11313504000000000001000MiguelBrigati@tupadrino.net                                                                         02M
01340252312523007842HECTOR MORILLO                                    V098364   00000V798364000000000001000HectorMorillop@tupadrino.net                                                                        02M
