C000010000000020000000000000000sss00

D261220160191014287210004434601340252302523007834000000002000000Liquidacion de Prestamo de TuPadrino.Net                    V011228820HECTOR EDUARDO MORILLO LOPEZ                                                    hectore.morillo@gmail.com                                                                           0011228820
