C000020000000000300000000000000sss00

D260520160191018354210002554101080301240100098950000000000010000Liquidacion de Prestamo de TuPadrino.Net Fecha: 2016-05-26  0V11009080REGULO JOSE PEREZ MARTINEZ                                                      titania08@gmail.com                                                                                 0011009080
D260520160191018354210002554101340077640772312130000000000020000Liquidacion de Prestamo de TuPadrino.Net Fecha: 2016-05-26  0V17636325HAROLD ESTEBAN VILLALOBOS VALBUENA                                              haroldestebanvillalobos@gmail.com                                                                   0017636325
