C000010000000040000000000000000sss00

D120120170191014287210004434601160116270204789893000000004000000Liquidacion de Prestamo de TuPadrino.Net                    V018480394RICARDO RAFAEL OLLARVES TALAVERA                                                r.r.o.t.y@hotmail.com                                                                               0018480394
