C000010000000020000000000000000sss00

D160120170191014287210004434601050161001161109242000000002000000Liquidacion de Prestamo de TuPadrino.Net                    V011313504MIGUEL EDUARDO BRIGATI GUERRA                                                   m_brigati@hotmail.com                                                                               0011313504
